C:\Users\Raquel\git\projectnevada\vertx\src\main\java\dad\is\trabajo\Fotografias.java
C:\Users\Raquel\git\projectnevada\vertx\src\main\java\dad\is\trabajo\Magnitud.java
C:\Users\Raquel\git\projectnevada\vertx\src\main\java\dad\is\trabajo\Usuario.java
C:\Users\Raquel\git\projectnevada\vertx\src\main\java\us\dad\vertx\firstVerticle.java
C:\Users\Raquel\git\projectnevada\vertx\src\main\java\dad\us\clase\comunicacion\consumerVerticle.java
C:\Users\Raquel\git\projectnevada\vertx\src\main\java\dad\is\clase\tcp\DadTcpClient.java
C:\Users\Raquel\git\projectnevada\vertx\src\main\java\verticle_Bloqueo\verticle_Bloqueo_Aux.java
C:\Users\Raquel\git\projectnevada\vertx\src\main\java\dad\is\clase\tcp\DadTcpServer.java
C:\Users\Raquel\git\projectnevada\vertx\src\main\java\dad\is\trabajo\ApiRest.java
C:\Users\Raquel\git\projectnevada\vertx\src\main\java\dad\is\trabajo\Camara.java
C:\Users\Raquel\git\projectnevada\vertx\src\main\java\dad\is\clase\tcp\ApiRestServer.java
C:\Users\Raquel\git\projectnevada\vertx\src\main\java\dad\us\clase\comunicacion\senderVerticle.java
C:\Users\Raquel\git\projectnevada\vertx\src\main\java\dad\is\clase\tcp\TemperaturaRest.java
C:\Users\Raquel\git\projectnevada\vertx\src\main\java\verticle_Bloqueo\verticle_block.java
